<svg version="1.1" xmlns="http://www.w3.org/2000/svg" xmlns:xlink="http://www.w3.org/1999/xlink" x="0px" y="0px" viewBox="0 0 240 240" style="enable-background:new 0 0 240 240;" xml:space="preserve">
<style type="text/css">
	.fill{fill:#000000;opacity:0;}
	.border{fill:#000000;}
</style>
<path class="fill" d=""/>
<path class="border" d="M158.58,101.89l-32.5,45c-1.41,1.95-3.67,3.11-6.08,3.11s-4.67-1.16-6.08-3.11l-32.5-45c-1.65-2.28-1.88-5.3-0.6-7.81
	S84.68,90,87.5,90h65c2.82,0,5.4,1.58,6.68,4.09S160.23,99.61,158.58,101.89z"/>
</svg>